<svg width="9" height="10" viewBox="0 0 9 10" fill="none" xmlns="http://www.w3.org/2000/svg">
<path d="M4.5 9.625C6.98555 9.625 9 7.61055 9 5.125C9 2.63945 6.98555 0.625 4.5 0.625C2.01445 0.625 0 2.63945 0 5.125C0 7.61055 2.01445 9.625 4.5 9.625ZM4.07812 6.67188V5.54688H2.95312C2.71934 5.54688 2.53125 5.35879 2.53125 5.125C2.53125 4.89121 2.71934 4.70312 2.95312 4.70312H4.07812V3.57812C4.07812 3.34434 4.26621 3.15625 4.5 3.15625C4.73379 3.15625 4.92188 3.34434 4.92188 3.57812V4.70312H6.04688C6.28066 4.70312 6.46875 4.89121 6.46875 5.125C6.46875 5.35879 6.28066 5.54688 6.04688 5.54688H4.92188V6.67188C4.92188 6.90566 4.73379 7.09375 4.5 7.09375C4.26621 7.09375 4.07812 6.90566 4.07812 6.67188Z" fill="#F06543"/>
</svg>
