<svg width="14" height="13" viewBox="0 0 14 13" fill="none" xmlns="http://www.w3.org/2000/svg">
<path d="M0 2.125C0 1.15977 0.784766 0.375 1.75 0.375H12.25C13.2152 0.375 14 1.15977 14 2.125V10.875C14 11.8402 13.2152 12.625 12.25 12.625H1.75C0.784766 12.625 0 11.8402 0 10.875V2.125ZM1.75 3.875V10.875H6.125V3.875H1.75ZM12.25 3.875H7.875V10.875H12.25V3.875Z" fill="#D1D4DC"/>
</svg>
