<svg width="10" height="11" viewBox="0 0 10 11" fill="none" xmlns="http://www.w3.org/2000/svg">
<path d="M7.09101 1.18641L6.14474 2.13267L8.68637 4.6743L9.63264 3.72803C10.1214 3.23926 10.1214 2.44744 9.63264 1.95867L8.86233 1.18641C8.37356 0.69763 7.58174 0.69763 7.09297 1.18641H7.09101ZM5.70289 2.57453L1.14555 7.13382C0.942222 7.33715 0.793635 7.58936 0.711521 7.86503L0.0194155 10.217C-0.029462 10.3832 0.0155053 10.5611 0.136721 10.6823C0.257938 10.8035 0.435852 10.8485 0.60008 10.8016L2.95206 10.1095C3.22773 10.0274 3.47994 9.87878 3.68327 9.67545L8.24452 5.11616L5.70289 2.57453Z" fill="#279AF1"/>
</svg>
