<svg width="13" height="14" viewBox="0 0 13 14" fill="none" xmlns="http://www.w3.org/2000/svg">
<path d="M6.5 13.5229C10.0902 13.5229 13 10.6132 13 7.02295C13 3.43271 10.0902 0.522949 6.5 0.522949C2.90977 0.522949 0 3.43271 0 7.02295C0 10.6132 2.90977 13.5229 6.5 13.5229ZM4.67188 6.41357H8.32812C8.66582 6.41357 8.9375 6.68525 8.9375 7.02295C8.9375 7.36064 8.66582 7.63232 8.32812 7.63232H4.67188C4.33418 7.63232 4.0625 7.36064 4.0625 7.02295C4.0625 6.68525 4.33418 6.41357 4.67188 6.41357Z" fill="#F06543"/>
</svg>
