<svg width="11" height="12" viewBox="0 0 11 12" fill="none" xmlns="http://www.w3.org/2000/svg">
<path d="M8.9375 4.64746C8.9375 5.63359 8.61738 6.54453 8.07812 7.28359L10.798 10.0057C11.0666 10.2742 11.0666 10.7104 10.798 10.9789C10.5295 11.2475 10.0934 11.2475 9.8248 10.9789L7.10488 8.25684C6.36582 8.79824 5.45488 9.11621 4.46875 9.11621C2.0002 9.11621 0 7.11602 0 4.64746C0 2.17891 2.0002 0.178711 4.46875 0.178711C6.9373 0.178711 8.9375 2.17891 8.9375 4.64746ZM4.46875 7.74121C6.17676 7.74121 7.5625 6.35547 7.5625 4.64746C7.5625 2.93945 6.17676 1.55371 4.46875 1.55371C2.76074 1.55371 1.375 2.93945 1.375 4.64746C1.375 6.35547 2.76074 7.74121 4.46875 7.74121Z" fill="#313D5A"/>
</svg>
