<svg width="16" height="17" viewBox="0 0 16 17" fill="none" xmlns="http://www.w3.org/2000/svg">
<path d="M4 2.67969C4 1.57656 4.89687 0.679688 6 0.679688H11V4.67969C11 5.23281 11.4469 5.67969 12 5.67969H16V14.6797C16 15.7828 15.1031 16.6797 14 16.6797H6C4.89687 16.6797 4 15.7828 4 14.6797V11.1797H9.44063L8.22188 12.3984C7.92813 12.6922 7.92813 13.1672 8.22188 13.4578C8.51562 13.7484 8.99063 13.7516 9.28125 13.4578L11.7812 10.9578C12.075 10.6641 12.075 10.1891 11.7812 9.89844L9.28125 7.39844C8.9875 7.10469 8.5125 7.10469 8.22188 7.39844C7.93125 7.69219 7.92813 8.16719 8.22188 8.45781L9.44063 9.67656H4V2.67969ZM4 9.67969V11.1797H0.75C0.334375 11.1797 0 10.8453 0 10.4297C0 10.0141 0.334375 9.67969 0.75 9.67969H4ZM16 4.67969H12V0.679688L16 4.67969Z" fill="#F8F8F8"/>
</svg>
